division circuits/div_unsigned/divider_tb.vcd
$date
  Sat Nov 16 00:39:36 2024
$end
$version
  GHDL v0
$end
$timescale
  1 fs
$end
$scope module standard $end
$upscope $end
$scope module std_logic_1164 $end
$upscope $end
$scope module numeric_std $end
$upscope $end
$scope module divider_tb $end
$var reg 4 ! a_tb[3:0] $end
$var reg 4 " b_tb[3:0] $end
$var reg 4 # q_tb[3:0] $end
$var reg 4 $ r_tb[3:0] $end
$scope module uut $end
$var reg 4 % a[3:0] $end
$var reg 4 & b[3:0] $end
$var reg 4 ' q[3:0] $end
$var reg 4 ( r[3:0] $end
$var reg 4 ) auns[3:0] $end
$var reg 4 * buns[3:0] $end
$var reg 4 + quns[3:0] $end
$var reg 4 , runs[3:0] $end
$upscope $end
$upscope $end
$enddefinitions $end
#0
b1111 !
b0011 "
b0101 #
b0000 $
b1111 %
b0011 &
b0101 '
b0000 (
b1111 )
b0011 *
b0101 +
b0000 ,
#10000000
b1000 !
b0010 "
b0100 #
b1000 %
b0010 &
b0100 '
b1000 )
b0010 *
b0100 +
#20000000
b1010 !
b0100 "
b0010 #
b0010 $
b1010 %
b0100 &
b0010 '
b0010 (
b1010 )
b0100 *
b0010 +
b0010 ,
#30000000
b0111 !
b0001 #
b0011 $
b0111 %
b0001 '
b0011 (
b0111 )
b0001 +
b0011 ,
#40000000
b1001 !
b0101 "
b0100 $
b1001 %
b0101 &
b0100 (
b1001 )
b0101 *
b0100 ,
#50000000
b0110 !
b0010 "
b0011 #
b0000 $
b0110 %
b0010 &
b0011 '
b0000 (
b0110 )
b0010 *
b0011 +
b0000 ,
#60000000
b0000 !
b0001 "
b0000 #
b0000 %
b0001 &
b0000 '
b0000 )
b0001 *
b0000 +
#70000000
b1000 !
b0011 "
b0010 #
b0010 $
b1000 %
b0011 &
b0010 '
b0010 (
b1000 )
b0011 *
b0010 +
b0010 ,
#80000000
b1110 !
b0111 "
b0000 $
b1110 %
b0111 &
b0000 (
b1110 )
b0111 *
b0000 ,
