Inorder Processor/work/top_tb.vcd
$date
  Wed Nov 27 00:04:33 2024
$end
$version
  GHDL v0
$end
$timescale
  1 fs
$end
$scope module standard $end
$upscope $end
$scope module std_logic_1164 $end
$upscope $end
$scope module numeric_std $end
$upscope $end
$scope module top_tb $end
$var reg 1 ! clk $end
$var reg 1 " reset $end
$scope module uut $end
$var reg 1 # clk $end
$var reg 1 $ reset $end
$var reg 8 % instr_addr[7:0] $end
$var reg 32 & instruction[31:0] $end
$var reg 8 ' data_addr[7:0] $end
$var reg 8 ( data_to_mem[7:0] $end
$var reg 8 ) data_from_mem[7:0] $end
$var reg 1 * data_wr $end
$scope module proc $end
$var reg 1 + clk $end
$var reg 1 , reset $end
$var reg 8 - data_out[7:0] $end
$var reg 32 . instr[31:0] $end
$var reg 8 / instr_addr[7:0] $end
$var reg 8 0 data_addr[7:0] $end
$var reg 8 1 data_in[7:0] $end
$var reg 1 2 data_wr $end
$var reg 8 3 pc[7:0] $end
$var reg 32 4 inst_reg[31:0] $end
$var reg 8 5 reg_a[7:0] $end
$var reg 8 6 reg_b[7:0] $end
$var reg 8 7 alu_res[7:0] $end
$var reg 3 8 alu_ctrl[2:0] $end
$var reg 1 9 zero_flag $end
$scope module alu_unit $end
$upscope $end
$upscope $end
$scope module imem $end
$var reg 1 : clk $end
$var reg 8 ; addr[7:0] $end
$var reg 32 < instr[31:0] $end
$comment memory is not handled $end
$upscope $end
$scope module dmem $end
$var reg 1 = clk $end
$var reg 8 > addr[7:0] $end
$var reg 8 ? data_in[7:0] $end
$var reg 8 @ data_out[7:0] $end
$var reg 1 A wr_en $end
$comment memory is not handled $end
$upscope $end
$upscope $end
$upscope $end
$enddefinitions $end
#0
0!
1"
0#
1$
b00000000 %
bUUUUUUUUUUUUUUUUUUUUUUUUUUUUUUUU &
bUUUUUUUU '
bUUUUUUUU (
bUUUUUUUU )
0*
0+
1,
bUUUUUUUU -
bUUUUUUUUUUUUUUUUUUUUUUUUUUUUUUUU .
b00000000 /
bUUUUUUUU 0
bUUUUUUUU 1
02
b00000000 3
bUUUUUUUUUUUUUUUUUUUUUUUUUUUUUUUU 4
bUUUUUUUU 5
bUUUUUUUU 6
bUUUUUUUU 7
b111 8
U9
0:
b00000000 ;
bUUUUUUUUUUUUUUUUUUUUUUUUUUUUUUUU <
0=
bUUUUUUUU >
bUUUUUUUU ?
bUUUUUUUU @
0A
#5000000
1!
1#
b00000000000110100000101000000000 &
b00001010 '
b00011010 (
b00000000 )
1+
b00000000 -
b00000000000110100000101000000000 .
b00001010 0
b00011010 1
b00000000000110100000101000000000 4
b00011010 5
b00001010 6
b000 8
1:
b00000000000110100000101000000000 <
1=
b00001010 >
b00011010 ?
b00000000 @
#10000000
0!
0#
0+
0:
0=
#15000000
1!
1#
1+
1:
1=
#20000000
0!
0#
0+
0:
0=
#25000000
1!
1#
1+
1:
1=
#30000000
0!
0#
0+
0:
0=
#35000000
1!
1#
1+
1:
1=
#40000000
0!
0"
0#
0$
0+
0,
0:
0=
#45000000
1!
1#
b00000001 %
1+
b00000001 /
b00000001 3
1:
b00000001 ;
1=
#50000000
0!
0#
0+
0:
0=
#55000000
1!
1#
b00000010 %
b00100000000011000000111100000000 &
b00001111 '
b00001100 (
1+
b00100000000011000000111100000000 .
b00000010 /
b00001111 0
b00001100 1
b00000010 3
b00100000000011000000111100000000 4
b00001100 5
b00001111 6
b001 8
1:
b00000010 ;
b00100000000011000000111100000000 <
1=
b00001111 >
b00001100 ?
#60000000
0!
0#
0+
0:
0=
#65000000
1!
1#
b00000011 %
b01000000000001110000011000000000 &
b00000110 '
b00000111 (
1+
b01000000000001110000011000000000 .
b00000011 /
b00000110 0
b00000111 1
b00000011 3
b01000000000001110000011000000000 4
b00000111 5
b00000110 6
b010 8
1:
b00000011 ;
b01000000000001110000011000000000 <
1=
b00000110 >
b00000111 ?
#70000000
0!
0#
0+
0:
0=
#75000000
1!
1#
b00000100 %
b01100000000101000011000100000000 &
b00110001 '
b00010100 (
1+
b01100000000101000011000100000000 .
b00000100 /
b00110001 0
b00010100 1
b00000100 3
b01100000000101000011000100000000 4
b00010100 5
b00110001 6
b011 8
1:
b00000100 ;
b01100000000101000011000100000000 <
1=
b00110001 >
b00010100 ?
#80000000
0!
0#
0+
0:
0=
#85000000
1!
1#
b00000101 %
b10000000001001110010010000000000 &
b00100100 '
b00100111 (
1+
b10000000001001110010010000000000 .
b00000101 /
b00100100 0
b00100111 1
b00000101 3
b10000000001001110010010000000000 4
b00100111 5
b00100100 6
b100 8
1:
b00000101 ;
b10000000001001110010010000000000 <
1=
b00100100 >
b00100111 ?
#90000000
0!
0#
0+
0:
0=
#95000000
1!
1#
b00000110 %
b10100000000101000010001100000000 &
b00100011 '
b00010100 (
1+
b10100000000101000010001100000000 .
b00000110 /
b00100011 0
b00010100 1
b00000110 3
b10100000000101000010001100000000 4
b00010100 5
b00100011 6
b101 8
1:
b00000110 ;
b10100000000101000010001100000000 <
1=
b00100011 >
b00010100 ?
#100000000
0!
0#
0+
0:
0=
#105000000
1!
1#
b00000111 %
b11000000000111100000000100000000 &
b00000001 '
b00011110 (
1*
1+
b11000000000111100000000100000000 .
b00000111 /
b00000001 0
b00011110 1
12
b00000111 3
b11000000000111100000000100000000 4
b00011110 5
b00000001 6
b110 8
1:
b00000111 ;
b11000000000111100000000100000000 <
1=
b00000001 >
b00011110 ?
1A
#110000000
0!
0#
0+
0:
0=
#115000000
1!
1#
b00001000 %
b00000000000000000000000000000000 &
b00000000 '
b00000000 (
0*
1+
b00000000000000000000000000000000 .
b00001000 /
b00000000 0
b00000000 1
02
b00001000 3
b00000000000000000000000000000000 4
b00000000 5
b00000000 6
b000 8
1:
b00001000 ;
b00000000000000000000000000000000 <
1=
b00000000 >
b00000000 ?
0A
#120000000
0!
0#
0+
0:
0=
#125000000
1!
1#
b00001001 %
1+
b00001001 /
b00001001 3
1:
b00001001 ;
1=
#130000000
0!
0#
0+
0:
0=
#135000000
1!
1#
b00001010 %
1+
b00001010 /
b00001010 3
1:
b00001010 ;
1=
#140000000
0!
0#
0+
0:
0=
#145000000
1!
1#
b00001011 %
1+
b00001011 /
b00001011 3
1:
b00001011 ;
1=
#150000000
0!
0#
0+
0:
0=
#155000000
1!
1#
b00001100 %
1+
b00001100 /
b00001100 3
1:
b00001100 ;
1=
#160000000
0!
0#
0+
0:
0=
#165000000
1!
1#
b00001101 %
1+
b00001101 /
b00001101 3
1:
b00001101 ;
1=
#170000000
0!
0#
0+
0:
0=
#175000000
1!
1#
b00001110 %
1+
b00001110 /
b00001110 3
1:
b00001110 ;
1=
#180000000
0!
0#
0+
0:
0=
#185000000
1!
1#
b00001111 %
1+
b00001111 /
b00001111 3
1:
b00001111 ;
1=
#190000000
0!
0#
0+
0:
0=
#195000000
1!
1#
b00010000 %
1+
b00010000 /
b00010000 3
1:
b00010000 ;
1=
#200000000
0!
0#
0+
0:
0=
#205000000
1!
1#
b00010001 %
1+
b00010001 /
b00010001 3
1:
b00010001 ;
1=
#210000000
0!
0#
0+
0:
0=
#215000000
1!
1#
b00010010 %
1+
b00010010 /
b00010010 3
1:
b00010010 ;
1=
#220000000
0!
0#
0+
0:
0=
#225000000
1!
1#
b00010011 %
1+
b00010011 /
b00010011 3
1:
b00010011 ;
1=
#230000000
0!
0#
0+
0:
0=
#235000000
1!
1#
b00010100 %
1+
b00010100 /
b00010100 3
1:
b00010100 ;
1=
#240000000
0!
1"
0#
1$
b00000000 %
0+
1,
b00000000 /
b00000000 3
0:
b00000000 ;
0=
#245000000
1!
1#
b00000000000110100000101000000000 &
b00001010 '
b00011010 (
1+
b00000000000110100000101000000000 .
b00001010 0
b00011010 1
b00000000000110100000101000000000 4
b00011010 5
b00001010 6
1:
b00000000000110100000101000000000 <
1=
b00001010 >
b00011010 ?
#250000000
0!
0#
0+
0:
0=
#255000000
1!
1#
1+
1:
1=
#260000000
0!
0"
0#
0$
0+
0,
0:
0=
#265000000
1!
1#
b00000001 %
1+
b00000001 /
b00000001 3
1:
b00000001 ;
1=
#270000000
0!
0#
0+
0:
0=
#275000000
1!
1#
b00000010 %
b00100000000011000000111100000000 &
b00001111 '
b00001100 (
1+
b00100000000011000000111100000000 .
b00000010 /
b00001111 0
b00001100 1
b00000010 3
b00100000000011000000111100000000 4
b00001100 5
b00001111 6
b001 8
1:
b00000010 ;
b00100000000011000000111100000000 <
1=
b00001111 >
b00001100 ?
#280000000
0!
0#
0+
0:
0=
#285000000
1!
1#
b00000011 %
b01000000000001110000011000000000 &
b00000110 '
b00000111 (
1+
b01000000000001110000011000000000 .
b00000011 /
b00000110 0
b00000111 1
b00000011 3
b01000000000001110000011000000000 4
b00000111 5
b00000110 6
b010 8
1:
b00000011 ;
b01000000000001110000011000000000 <
1=
b00000110 >
b00000111 ?
#290000000
0!
0#
0+
0:
0=
#295000000
1!
1#
b00000100 %
b01100000000101000011000100000000 &
b00110001 '
b00010100 (
1+
b01100000000101000011000100000000 .
b00000100 /
b00110001 0
b00010100 1
b00000100 3
b01100000000101000011000100000000 4
b00010100 5
b00110001 6
b011 8
1:
b00000100 ;
b01100000000101000011000100000000 <
1=
b00110001 >
b00010100 ?
#300000000
0!
0#
0+
0:
0=
#305000000
1!
1#
b00000101 %
b10000000001001110010010000000000 &
b00100100 '
b00100111 (
1+
b10000000001001110010010000000000 .
b00000101 /
b00100100 0
b00100111 1
b00000101 3
b10000000001001110010010000000000 4
b00100111 5
b00100100 6
b100 8
1:
b00000101 ;
b10000000001001110010010000000000 <
1=
b00100100 >
b00100111 ?
#310000000
0!
0#
0+
0:
0=
#315000000
1!
1#
b00000110 %
b10100000000101000010001100000000 &
b00100011 '
b00010100 (
1+
b10100000000101000010001100000000 .
b00000110 /
b00100011 0
b00010100 1
b00000110 3
b10100000000101000010001100000000 4
b00010100 5
b00100011 6
b101 8
1:
b00000110 ;
b10100000000101000010001100000000 <
1=
b00100011 >
b00010100 ?
#320000000
0!
0#
0+
0:
0=
#325000000
1!
1#
b00000111 %
b11000000000111100000000100000000 &
b00000001 '
b00011110 (
1*
1+
b11000000000111100000000100000000 .
b00000111 /
b00000001 0
b00011110 1
12
b00000111 3
b11000000000111100000000100000000 4
b00011110 5
b00000001 6
b110 8
1:
b00000111 ;
b11000000000111100000000100000000 <
1=
b00000001 >
b00011110 ?
1A
#330000000
0!
0#
0+
0:
0=
#335000000
1!
1#
b00001000 %
b00000000000000000000000000000000 &
b00000000 '
b00000000 (
b00011110 )
0*
1+
b00011110 -
b00000000000000000000000000000000 .
b00001000 /
b00000000 0
b00000000 1
02
b00001000 3
b00000000000000000000000000000000 4
b00000000 5
b00000000 6
b000 8
1:
b00001000 ;
b00000000000000000000000000000000 <
1=
b00000000 >
b00000000 ?
b00011110 @
0A
#340000000
0!
0#
0+
0:
0=
#345000000
1!
1#
b00001001 %
b00000000 )
1+
b00000000 -
b00001001 /
b00001001 3
1:
b00001001 ;
1=
b00000000 @
#350000000
0!
0#
0+
0:
0=
#355000000
1!
1#
b00001010 %
1+
b00001010 /
b00001010 3
1:
b00001010 ;
1=
#360000000
0!
0#
0+
0:
0=
#365000000
1!
1#
b00001011 %
1+
b00001011 /
b00001011 3
1:
b00001011 ;
1=
#370000000
0!
0#
0+
0:
0=
#375000000
1!
1#
b00001100 %
1+
b00001100 /
b00001100 3
1:
b00001100 ;
1=
#380000000
0!
0#
0+
0:
0=
#385000000
1!
1#
b00001101 %
1+
b00001101 /
b00001101 3
1:
b00001101 ;
1=
#390000000
0!
0#
0+
0:
0=
#395000000
1!
1#
b00001110 %
1+
b00001110 /
b00001110 3
1:
b00001110 ;
1=
#400000000
0!
0#
0+
0:
0=
#405000000
1!
1#
b00001111 %
1+
b00001111 /
b00001111 3
1:
b00001111 ;
1=
#410000000
0!
0#
0+
0:
0=
#415000000
1!
1#
b00010000 %
1+
b00010000 /
b00010000 3
1:
b00010000 ;
1=
#420000000
0!
0#
0+
0:
0=
#425000000
1!
1#
b00010001 %
1+
b00010001 /
b00010001 3
1:
b00010001 ;
1=
#430000000
0!
0#
0+
0:
0=
#435000000
1!
1#
b00010010 %
1+
b00010010 /
b00010010 3
1:
b00010010 ;
1=
#440000000
0!
0#
0+
0:
0=
#445000000
1!
1#
b00010011 %
1+
b00010011 /
b00010011 3
1:
b00010011 ;
1=
#450000000
0!
0#
0+
0:
0=
#455000000
1!
1#
b00010100 %
1+
b00010100 /
b00010100 3
1:
b00010100 ;
1=
#460000000
0!
0#
0+
0:
0=
#465000000
1!
1#
b00010101 %
1+
b00010101 /
b00010101 3
1:
b00010101 ;
1=
#470000000
0!
0#
0+
0:
0=
#475000000
1!
1#
b00010110 %
1+
b00010110 /
b00010110 3
1:
b00010110 ;
1=
#480000000
0!
0#
0+
0:
0=
#485000000
1!
1#
b00010111 %
1+
b00010111 /
b00010111 3
1:
b00010111 ;
1=
#490000000
0!
0#
0+
0:
0=
#495000000
1!
1#
b00011000 %
1+
b00011000 /
b00011000 3
1:
b00011000 ;
1=
