comparator/sim_comparator.vcd
$date
  Wed Nov 20 18:57:10 2024
$end
$version
  GHDL v0
$end
$timescale
  1 fs
$end
$scope module standard $end
$upscope $end
$scope module std_logic_1164 $end
$upscope $end
$scope module numeric_std $end
$upscope $end
$scope module tb_comparator_vhdl $end
$var reg 2 ! a[1:0] $end
$var reg 2 " b[1:0] $end
$var reg 1 # a_less_b $end
$var reg 1 $ a_equal_b $end
$var reg 1 % a_greater_b $end
$scope module uut $end
$var reg 2 & a[1:0] $end
$var reg 2 ' b[1:0] $end
$var reg 1 ( a_less_b $end
$var reg 1 ) a_equal_b $end
$var reg 1 * a_greater_b $end
$var reg 1 + tmp1 $end
$var reg 1 , tmp2 $end
$var reg 1 - tmp3 $end
$var reg 1 . tmp4 $end
$var reg 1 / tmp5 $end
$var reg 1 0 tmp6 $end
$var reg 1 1 tmp7 $end
$var reg 1 2 tmp8 $end
$upscope $end
$upscope $end
$enddefinitions $end
#0
b00 !
b01 "
1#
0$
0%
b00 &
b01 '
1(
0)
0*
1+
0,
1-
0.
0/
00
01
02
#20000000
b01 !
b10 "
b01 &
b10 '
0+
0-
1.
#40000000
b10 !
b11 "
b10 &
b11 '
1+
0.
1/
#60000000
b11 !
b00 "
0#
1%
b11 &
b00 '
0(
1*
0+
0/
10
11
12
#80000000
b01 !
b01 &
1+
01
02
#100000000
b10 !
b01 "
b10 &
b01 '
0+
00
11
#120000000
b11 !
b10 "
b11 &
b10 '
1+
01
12
#140000000
b00 !
b11 "
1#
0%
b00 &
b11 '
1(
0*
0+
1-
1.
1/
02
#160000000
b00 "
0#
1$
b00 '
0(
1)
1+
1,
0-
0.
0/
#180000000
b01 !
b01 "
b01 &
b01 '
#200000000
b10 !
b10 "
b10 &
b10 '
#220000000
b11 !
b11 "
b11 &
b11 '
